{
    "KPlugin": {
        "Icon": "preferences-plugin",
        "License": "GPL",
        "Name": "KDE Partition Manager sfdisk Backend",
        "Name[ca@valencia]": "Dorsal «sfdisk» del gestor de particions de KDE",
        "Name[ca]": "Dorsal «sfdisk» del gestor de particions del KDE",
        "Name[cs]": "Podpůrná vrstva sfdisk pro správce diskových oddílů pro KDE",
        "Name[da]": "KDE-partitionshåndtering med sfdisk-backend",
        "Name[de]": "KDE-Partitionsverwaltung sfdisk-Backend",
        "Name[el]": "KDE Σύστημα υποστήριξης sfdisk διαχειριστή κατατμήσεων",
        "Name[en_GB]": "KDE Partition Manager sfdisk Backend",
        "Name[eo]": "sfdisk-Internaĵo de KDE-Subdiskmastrumilo",
        "Name[es]": "Motor sfdisk para el gestor de particiones de KDE",
        "Name[et]": "KDE partitsioonihalduri sfdisk'i taustaprogramm",
        "Name[eu]": "KDE partizio kudeatzailearen «sfdisk» bizkarraldekoa",
        "Name[fi]": "KDE:n osionhallinnan sfdisk-taustaosa",
        "Name[fr]": "Moteur « sfdisk » pour le gestionnaire de partitions de KDE",
        "Name[gl]": "Infraestrutura de sfdisk para o xestor de particións de KDE",
        "Name[hu]": "KDE partíciókezelő sfdisk modul",
        "Name[ia]": "KDE Partition Manager (gerente de partition de KDE) RetroAdministration de sfdisk",
        "Name[id]": "Backend sfdisk Pengelola Partisi KDE",
        "Name[it]": "Motore sfdisk del gestore delle partizioni di KDE",
        "Name[ka]": "KDE-ის დანაყოფების მმართველის sfdisk-ის უკანაბოლო",
        "Name[ko]": "KDE 파티션 관리자 sfdisk 백엔드",
        "Name[lt]": "KDE skaidinių tvarkyklės sfdisk galinė sąsaja",
        "Name[nl]": "Sfdisk backend van KDE-partitiebeheerder",
        "Name[nn]": "sfdisk-bakgrunnsmotor for KDE-partisjonshandtering",
        "Name[pl]": "Silnik sfdisk zarządzania partycjami",
        "Name[pt]": "Infra-Estrutura do Sfdisk para o Gestor de Partições do KDE",
        "Name[pt_BR]": "Gerenciador de Partição do KDE simulando sfdisk Back-end.",
        "Name[ru]": "Механизм sfdisk для диспетчера разделов KDE",
        "Name[sk]": "Backend KDE správcu partícií sfdisk",
        "Name[sl]": "KDE Partition Manager zaledni program sfdisk",
        "Name[sv]": "KDE:s partitionshanterare sfdisk bakgrundsprogram",
        "Name[tr]": "KDE Bölüntü Yöneticisi sfdisk Arka Ucu",
        "Name[uk]": "Додаток sfdisk сервера Керування розділами KDE",
        "Name[x-test]": "xxKDE Partition Manager sfdisk Backendxx",
        "Name[zh_CN]": "KDE 分区管理器 sfdisk 后端程序",
        "Name[zh_TW]": "KDE 磁碟分割區管理員 (sfdisk 後端)",
        "Version": "1"
    }
}
